﻿,"LUDNOŚĆ  WEDŁUG  PŁCI, WOJEWÓDZTW, POWIATÓW I GMIN",,,,,,,,,,
,,,,,,,,,,,
,stan w dniu 31 XII 2011 roku,,,Bilans opracowany na bazie wyników NSP'2011,,,,,,,
,,,,,,,,,,,
"POWIATY
GMINY
oznaczenia:
pow. - powiat
M. - gmina miejska 
G. - gmina wiejska
M-W - gmina miejsko-wiejska",Symbol terytorialny ,Ogółem,Mężczyźni,   Kobiety ,Miasta,,,Wieś ,,,
,,,,,  razem,mężczyźni,kobiety,  razem,mężczyźni,kobiety,
,,,,,,,,,,,
,,,,,,,,,,,
DOLNOŚLĄSKIE                        ,02     ,2916577,1402975,1513602,2034656,963867,1070789,881921,439108,442813,
,,,,,,,,,,,
pow. bolesławiecki            ,0201   ,90528,44040,46488,44367,21037,23330,46161,23003,23158,
M.Bolesławiec                         ,0201011,40119,18985,21134,40119,18985,21134,-,-,-,
G.Bolesławiec                         ,0201022,13714,6824,6890,-,-,-,13714,6824,6890,
G.Gromadka                            ,0201032,5491,2742,2749,-,-,-,5491,2742,2749,
M-W.Nowogrodziec                        ,0201043,15287,7508,7779,4248,2052,2196,11039,5456,5583,
G.Osiecznica                          ,0201052,7547,3805,3742,-,-,-,7547,3805,3742,
G.Warta Bolesławiecka                 ,0201062,8370,4176,4194,-,-,-,8370,4176,4194,
,,,,,,,,,,,
pow. dzierżoniowski           ,0202   ,105762,50211,55551,86029,40484,45545,19733,9727,10006,
M.Bielawa                             ,0202011,31583,14704,16879,31583,14704,16879,-,-,-,
M.Dzierżoniów                         ,0202021,34838,16341,18497,34838,16341,18497,-,-,-,
M.Pieszyce                            ,0202031,9688,4657,5031,9688,4657,5031,-,-,-,
M.Piława Górna                        ,0202041,6776,3247,3529,6776,3247,3529,-,-,-,
G.Dzierżoniów                         ,0202052,9413,4678,4735,-,-,-,9413,4678,4735,
G.Łagiewniki                          ,0202062,7596,3694,3902,-,-,-,7596,3694,3902,
M-W.Niemcza                             ,0202073,5868,2890,2978,3144,1535,1609,2724,1355,1369,
,,,,,,,,,,,
pow. głogowski                ,0203   ,90249,44052,46197,69259,33496,35763,20990,10556,10434,
M.Głogów                              ,0203011,69259,33496,35763,69259,33496,35763,-,-,-,
G.Głogów                              ,0203022,6363,3168,3195,-,-,-,6363,3168,3195,
G.Jerzmanowa                          ,0203032,4319,2162,2157,-,-,-,4319,2162,2157,
G.Kotla                               ,0203042,4341,2164,2177,-,-,-,4341,2164,2177,
G.Pęcław                              ,0203052,2359,1204,1155,-,-,-,2359,1204,1155,
G.Żukowice                            ,0203062,3608,1858,1750,-,-,-,3608,1858,1750,
,,,,,,,,,,,
pow. górowski                 ,0204   ,36730,18192,18538,15312,7440,7872,21418,10752,10666,
M-W.Góra                                ,0204013,20855,10259,10596,12503,6039,6464,8352,4220,4132,
G.Jemielno                            ,0204022,3180,1589,1591,-,-,-,3180,1589,1591,
G.Niechlów                            ,0204032,5175,2591,2584,-,-,-,5175,2591,2584,
M-W.Wąsosz                              ,0204043,7520,3753,3767,2809,1401,1408,4711,2352,2359,
,,,,,,,,,,,
pow. jaworski                 ,0205   ,52603,25824,26779,29700,14308,15392,22903,11516,11387,
M.Jawor                               ,0205011,24240,11657,12583,24240,11657,12583,-,-,-,
M-W.Bolków                              ,0205023,11085,5474,5611,5460,2651,2809,5625,2823,2802,
G.Męcinka                             ,0205032,4955,2480,2475,-,-,-,4955,2480,2475,
G.Mściwojów                           ,0205042,4198,2085,2113,-,-,-,4198,2085,2113,
G.Paszowice                           ,0205052,4019,2063,1956,-,-,-,4019,2063,1956,
G.Wądroże Wielkie                     ,0205062,4106,2065,2041,-,-,-,4106,2065,2041,
,,,,,,,,,,,
pow. jeleniogórski            ,0206   ,65137,31389,33748,30242,14285,15957,34895,17104,17791,
M.Karpacz                             ,0206011,4999,2342,2657,4999,2342,2657,-,-,-,
M.Kowary                              ,0206021,11735,5539,6196,11735,5539,6196,-,-,-,
M.Piechowice                          ,0206031,6552,3140,3412,6552,3140,3412,-,-,-,
M.Szklarska Poręba                    ,0206041,6956,3264,3692,6956,3264,3692,-,-,-,
G.Janowice Wielkie                    ,0206052,4309,2169,2140,-,-,-,4309,2169,2140,
G.Jeżów Sudecki                       ,0206062,6866,3336,3530,-,-,-,6866,3336,3530,
G.Mysłakowice                         ,0206072,10193,4946,5247,-,-,-,10193,4946,5247,
G.Podgórzyn                           ,0206082,8156,4000,4156,-,-,-,8156,4000,4156,
G.Stara Kamienica                     ,0206092,5371,2653,2718,-,-,-,5371,2653,2718,
,,,,,,,,,,,
pow. kamiennogórski           ,0207   ,45835,22412,23423,26983,12963,14020,18852,9449,9403,
M.Kamienna Góra                       ,0207011,20553,9905,10648,20553,9905,10648,-,-,-,
G.Kamienna Góra                       ,0207022,9006,4497,4509,-,-,-,9006,4497,4509,
M-W.Lubawka                             ,0207033,11560,5652,5908,6430,3058,3372,5130,2594,2536,
G.Marciszów                           ,0207042,4716,2358,2358,-,-,-,4716,2358,2358,
,,,,,,,,,,,
pow. kłodzki                  ,0208   ,166843,80474,86369,107883,51158,56725,58960,29316,29644,
M.Duszniki-Zdrój                      ,0208011,4995,2335,2660,4995,2335,2660,-,-,-,
M.Kłodzko                             ,0208021,28581,13454,15127,28581,13454,15127,-,-,-,
M.Kudowa-Zdrój                        ,0208031,10379,4934,5445,10379,4934,5445,-,-,-,
M.Nowa Ruda                           ,0208041,23761,11400,12361,23761,11400,12361,-,-,-,
M.Polanica-Zdrój                      ,0208051,6771,3087,3684,6771,3087,3684,-,-,-,
M-W.Bystrzyca Kłodzka                   ,0208063,19794,9543,10251,10606,4993,5613,9188,4550,4638,
G.Kłodzko                             ,0208072,17236,8496,8740,-,-,-,17236,8496,8740,
M-W.Lądek-Zdrój                         ,0208083,8791,4157,4634,6081,2817,3264,2710,1340,1370,
G.Lewin Kłodzki                       ,0208092,1990,954,1036,-,-,-,1990,954,1036,
M-W.Międzylesie                         ,0208103,7570,3796,3774,2761,1354,1407,4809,2442,2367,
G.Nowa Ruda                           ,0208112,12212,6030,6182,-,-,-,12212,6030,6182,
M-W.Radków                              ,0208123,9448,4756,4692,2526,1224,1302,6922,3532,3390,
M-W.Stronie Śląskie                     ,0208133,7801,3762,4039,6057,2873,3184,1744,889,855,
M-W.Szczytna                            ,0208143,7514,3770,3744,5365,2687,2678,2149,1083,1066,
,,,,,,,,,,,
pow. legnicki                 ,0209   ,54744,26728,28016,17963,8606,9357,36781,18122,18659,
M.Chojnów                             ,0209011,14285,6799,7486,14285,6799,7486,-,-,-,
G.Chojnów                             ,0209022,9475,4784,4691,-,-,-,9475,4784,4691,
G.Krotoszyce                          ,0209032,3192,1571,1621,-,-,-,3192,1571,1621,
G.Kunice                              ,0209042,6021,2963,3058,-,-,-,6021,2963,3058,
G.Legnickie Pole                      ,0209052,5172,2366,2806,-,-,-,5172,2366,2806,
G.Miłkowice                           ,0209062,6322,3110,3212,-,-,-,6322,3110,3212,
M-W.Prochowice                          ,0209073,7544,3750,3794,3678,1807,1871,3866,1943,1923,
G.Ruja                                ,0209082,2733,1385,1348,-,-,-,2733,1385,1348,
,,,,,,,,,,,
pow. lubański                 ,0210   ,56732,27532,29200,35876,17083,18793,20856,10449,10407,
M.Lubań                               ,0210011,22223,10523,11700,22223,10523,11700,-,-,-,
M.Świeradów-Zdrój                     ,0210021,4452,2065,2387,4452,2065,2387,-,-,-,
M-W.Leśna                               ,0210033,10566,5243,5323,4708,2309,2399,5858,2934,2924,
G.Lubań                               ,0210042,6532,3282,3250,-,-,-,6532,3282,3250,
M-W.Olszyna                             ,0210053,6676,3302,3374,4493,2186,2307,2183,1116,1067,
G.Platerówka                          ,0210062,1673,848,825,-,-,-,1673,848,825,
G.Siekierczyn                         ,0210072,4610,2269,2341,-,-,-,4610,2269,2341,
,,,,,,,,,,,
pow. lubiński                 ,0211   ,106966,52065,54901,81045,39078,41967,25921,12987,12934,
M.Lubin                               ,0211011,75147,36159,38988,75147,36159,38988,-,-,-,
G.Lubin                               ,0211022,13750,6929,6821,-,-,-,13750,6929,6821,
G.Rudna                               ,0211032,7569,3748,3821,-,-,-,7569,3748,3821,
M-W.Ścinawa                             ,0211043,10500,5229,5271,5898,2919,2979,4602,2310,2292,
,,,,,,,,,,,
pow. lwówecki                 ,0212   ,47877,23346,24531,24526,11698,12828,23351,11648,11703,
M-W.Gryfów Śląski                       ,0212013,10218,4930,5288,7055,3345,3710,3163,1585,1578,
M-W.Lubomierz                           ,0212023,6228,3065,3163,2019,985,1034,4209,2080,2129,
M-W.Lwówek Śląski                       ,0212033,18049,8820,9229,9435,4505,4930,8614,4315,4299,
M-W.Mirsk                               ,0212043,8969,4333,4636,4172,1975,2197,4797,2358,2439,
M-W.Wleń                                ,0212053,4413,2198,2215,1845,888,957,2568,1310,1258,
,,,,,,,,,,,
pow. milicki                  ,0213   ,37529,18544,18985,11956,5742,6214,25573,12802,12771,
G.Cieszków                            ,0213012,4704,2334,2370,-,-,-,4704,2334,2370,
G.Krośnice                            ,0213022,8249,4136,4113,-,-,-,8249,4136,4113,
M-W.Milicz                              ,0213033,24576,12074,12502,11956,5742,6214,12620,6332,6288,
,,,,,,,,,,,
pow. oleśnicki                ,0214   ,105648,51757,53891,61939,29732,32207,43709,22025,21684,
M.Oleśnica                            ,0214011,37191,17769,19422,37191,17769,19422,-,-,-,
M-W.Bierutów                            ,0214023,10311,5047,5264,5065,2450,2615,5246,2597,2649,
G.Dobroszyce                          ,0214032,6359,3184,3175,-,-,-,6359,3184,3175,
G.Dziadowa Kłoda                      ,0214042,4656,2324,2332,-,-,-,4656,2324,2332,
M-W.Międzybórz                          ,0214053,5122,2527,2595,2375,1156,1219,2747,1371,1376,
G.Oleśnica                            ,0214062,12483,6418,6065,-,-,-,12483,6418,6065,
M-W.Syców                               ,0214073,16494,8018,8476,10474,5016,5458,6020,3002,3018,
M-W.Twardogóra                          ,0214083,13032,6470,6562,6834,3341,3493,6198,3129,3069,
,,,,,,,,,,,
pow. oławski                  ,0215   ,75151,36797,38354,47817,23243,24574,27334,13554,13780,
M.Oława                               ,0215011,31959,15419,16540,31959,15419,16540,-,-,-,
G.Domaniów                            ,0215022,5365,2651,2714,-,-,-,5365,2651,2714,
M-W.Jelcz-Laskowice                     ,0215033,22976,11381,11595,15858,7824,8034,7118,3557,3561,
G.Oława                               ,0215042,14851,7346,7505,-,-,-,14851,7346,7505,
,,,,,,,,,,,
pow. polkowicki               ,0216   ,63121,31287,31834,37617,18407,19210,25504,12880,12624,
M-W.Chocianów                           ,0216013,13115,6495,6620,8297,4043,4254,4818,2452,2366,
G.Gaworzyce                           ,0216022,3965,1982,1983,-,-,-,3965,1982,1983,
G.Grębocice                           ,0216032,5301,2681,2620,-,-,-,5301,2681,2620,
M-W.Polkowice                           ,0216043,27235,13390,13845,22777,11156,11621,4458,2234,2224,
M-W.Przemków                            ,0216053,8863,4385,4478,6543,3208,3335,2320,1177,1143,
G.Radwanice                           ,0216062,4642,2354,2288,-,-,-,4642,2354,2288,
,,,,,,,,,,,
pow. strzeliński              ,0217   ,44652,22059,22593,14967,7187,7780,29685,14872,14813,
G.Borów                               ,0217012,5289,2632,2657,-,-,-,5289,2632,2657,
G.Kondratowice                        ,0217022,4562,2307,2255,-,-,-,4562,2307,2255,
G.Przeworno                           ,0217032,5106,2575,2531,-,-,-,5106,2575,2531,
M-W.Strzelin                            ,0217043,22198,10832,11366,12602,6052,6550,9596,4780,4816,
M-W.Wiązów                              ,0217053,7497,3713,3784,2365,1135,1230,5132,2578,2554,
,,,,,,,,,,,
pow. średzki                  ,0218   ,51782,25530,26252,9253,4398,4855,42529,21132,21397,
G.Kostomłoty                          ,0218012,7162,3576,3586,-,-,-,7162,3576,3586,
G.Malczyce                            ,0218022,6101,3008,3093,-,-,-,6101,3008,3093,
G.Miękinia                            ,0218032,13514,6683,6831,-,-,-,13514,6683,6831,
M-W.Środa Śląska                        ,0218043,19539,9539,10000,9253,4398,4855,10286,5141,5145,
G.Udanin                              ,0218052,5466,2724,2742,-,-,-,5466,2724,2742,
,,,,,,,,,,,
pow. świdnicki                ,0219   ,162145,78322,83823,112653,53721,58932,49492,24601,24891,
M.Świdnica                            ,0219011,60213,28699,31514,60213,28699,31514,-,-,-,
M.Świebodzice                         ,0219021,23287,11037,12250,23287,11037,12250,-,-,-,
G.Dobromierz                          ,0219032,5430,2718,2712,-,-,-,5430,2718,2712,
M-W.Jaworzyna Śląska                    ,0219043,10496,5046,5450,5268,2483,2785,5228,2563,2665,
G.Marcinowice                         ,0219052,6511,3202,3309,-,-,-,6511,3202,3309,
M-W.Strzegom                            ,0219063,27048,13203,13845,16908,8111,8797,10140,5092,5048,
G.Świdnica                            ,0219072,16498,8196,8302,-,-,-,16498,8196,8302,
M-W.Żarów                               ,0219083,12662,6221,6441,6977,3391,3586,5685,2830,2855,
,,,,,,,,,,,
pow. trzebnicki               ,0220   ,82015,40282,41733,30411,14565,15846,51604,25717,25887,
M-W.Oborniki Śląskie                    ,0220013,19343,9457,9886,8893,4244,4649,10450,5213,5237,
M-W.Prusice                             ,0220023,9385,4708,4677,2303,1141,1162,7082,3567,3515,
M-W.Trzebnica                           ,0220033,23087,11180,11907,12661,5970,6691,10426,5210,5216,
G.Wisznia Mała                        ,0220042,9429,4596,4833,-,-,-,9429,4596,4833,
G.Zawonia                             ,0220052,5755,2905,2850,-,-,-,5755,2905,2850,
M-W.Żmigród                             ,0220063,15016,7436,7580,6554,3210,3344,8462,4226,4236,
,,,,,,,,,,,
pow. wałbrzyski               ,0221   ,178776,84995,93781,158731,75148,83583,20045,9847,10198,
M.Boguszów-Gorce                      ,0221011,16520,8002,8518,16520,8002,8518,-,-,-,
M.Jedlina-Zdrój                       ,0221021,5071,2389,2682,5071,2389,2682,-,-,-,
M.Szczawno-Zdrój                      ,0221031,5946,2806,3140,5946,2806,3140,-,-,-,
G.Czarny Bór                          ,0221042,4855,2410,2445,-,-,-,4855,2410,2445,
M-W.Głuszyca                            ,0221053,9112,4337,4775,6805,3199,3606,2307,1138,1169,
M-W.Mieroszów                           ,0221063,7313,3491,3822,4434,2115,2319,2879,1376,1503,
G.Stare Bogaczowice                   ,0221072,4256,2091,2165,-,-,-,4256,2091,2165,
G.Walim                               ,0221082,5748,2832,2916,-,-,-,5748,2832,2916,
M.Wałbrzych                           ,0221091,119955,56637,63318,119955,56637,63318,-,-,-,
,,,,,,,,,,,
pow. wołowski                 ,0222   ,47799,23349,24450,25326,12145,13181,22473,11204,11269,
M-W.Brzeg Dolny                         ,0222013,16256,7845,8411,12730,6091,6639,3526,1754,1772,
G.Wińsko                              ,0222022,8638,4237,4401,-,-,-,8638,4237,4401,
M-W.Wołów                               ,0222033,22905,11267,11638,12596,6054,6542,10309,5213,5096,
,,,,,,,,,,,
pow. wrocławski               ,0223   ,121651,59718,61933,18683,8958,9725,102968,50760,52208,
G.Czernica                            ,0223012,12186,6028,6158,-,-,-,12186,6028,6158,
G.Długołęka                           ,0223022,24704,12271,12433,-,-,-,24704,12271,12433,
G.Jordanów Śląski                     ,0223032,3132,1565,1567,-,-,-,3132,1565,1567,
M-W.Kąty Wrocławskie                    ,0223043,21491,10567,10924,6109,2932,3177,15382,7635,7747,
G.Kobierzyce                          ,0223052,17268,8367,8901,-,-,-,17268,8367,8901,
G.Mietków                             ,0223062,3864,1922,1942,-,-,-,3864,1922,1942,
M-W.Sobótka                             ,0223073,12769,6228,6541,7030,3340,3690,5739,2888,2851,
M-W.Siechnice                           ,0223083,16781,8055,8726,5544,2686,2858,11237,5369,5868,
G.Żórawina                            ,0223092,9456,4715,4741,-,-,-,9456,4715,4741,
,,,,,,,,,,,
pow. ząbkowicki               ,0224   ,68807,33446,35361,31044,14714,16330,37763,18732,19031,
M-W.Bardo                               ,0224013,5552,2706,2846,2778,1317,1461,2774,1389,1385,
G.Ciepłowody                          ,0224022,3121,1547,1574,-,-,-,3121,1547,1574,
G.Kamieniec Ząbkowicki                ,0224032,8541,4208,4333,-,-,-,8541,4208,4333,
G.Stoszowice                          ,0224042,5555,2726,2829,-,-,-,5555,2726,2829,
M-W.Ząbkowice Śląskie                   ,0224053,23016,11014,12002,16002,7522,8480,7014,3492,3522,
M-W.Ziębice                             ,0224063,18211,8909,9302,9285,4436,4849,8926,4473,4453,
M-W.Złoty Stok                          ,0224073,4811,2336,2475,2979,1439,1540,1832,897,935,
,,,,,,,,,,,
pow. zgorzelecki              ,0225   ,94205,45972,48233,64575,31036,33539,29630,14936,14694,
M.Zawidów                             ,0225011,4359,2080,2279,4359,2080,2279,-,-,-,
M.Zgorzelec                           ,0225021,32446,15403,17043,32446,15403,17043,-,-,-,
M-W.Bogatynia                           ,0225033,24832,12215,12617,18749,9093,9656,6083,3122,2961,
M-W.Pieńsk                              ,0225043,9353,4665,4688,5955,2938,3017,3398,1727,1671,
G.Sulików                             ,0225052,6148,3088,3060,-,-,-,6148,3088,3060,
M-W.Węgliniec                           ,0225063,8811,4368,4443,3066,1522,1544,5745,2846,2899,
G.Zgorzelec                           ,0225072,8256,4153,4103,-,-,-,8256,4153,4103,
,,,,,,,,,,,
pow. złotoryjski              ,0226   ,45613,22350,23263,22822,10933,11889,22791,11417,11374,
M.Wojcieszów                          ,0226011,3911,1899,2012,3911,1899,2012,-,-,-,
M.Złotoryja                           ,0226021,16500,7868,8632,16500,7868,8632,-,-,-,
G.Pielgrzymka                         ,0226032,4693,2390,2303,-,-,-,4693,2390,2303,
M-W.Świerzawa                           ,0226043,7821,3887,3934,2411,1166,1245,5410,2721,2689,
G.Zagrodno                            ,0226052,5553,2774,2779,-,-,-,5553,2774,2779,
G.Złotoryja                           ,0226062,7135,3532,3603,-,-,-,7135,3532,3603,
,,,,,,,,,,,
M. Jelenia Góra                        ,0261011,83463,38967,44496,83463,38967,44496,-,-,-,
,,,,,,,,,,,
M. Legnica                             ,0262011,102979,48766,54213,102979,48766,54213,-,-,-,
,,,,,,,,,,,
M. Wrocław                             ,0264011,631235,294569,336666,631235,294569,336666,-,-,-,
,,,,,,,,,,,
D.Wrocław-Fabryczna                   ,0264029,198057,92849,105208,198057,92849,105208,-,-,-,
,,,,,,,,,,,
D.Wrocław-Krzyki                      ,0264039,169065,78416,90649,169065,78416,90649,-,-,-,
,,,,,,,,,,,
D.Wrocław-Psie Pole                   ,0264049,94487,44925,49562,94487,44925,49562,-,-,-,
,,,,,,,,,,,
D.Wrocław-Stare Miasto                ,0264059,52134,23575,28559,52134,23575,28559,-,-,-,
,,,,,,,,,,,
D.Wrocław-Śródmieście                 ,0264069,117492,54804,62688,117492,54804,62688,-,-,-,
,,,,,,,,,,,
,,,,,,,,,,,
 ,,,,,,,,,,,
 ,,,,,,,,,,,
,,,,,,,,,,,
,,,,,,,,,,,
,,,,,,,,,,,
,,,,,,,,,,,
,,,,,,,,,,,
,,,,,,,,,,,
,,,,,,,,,,,
,,,,,,,,,,,
,,,,,,,,,,,
,,,,,,,,,,,
,,,,,,,,,,,
,,,,,,,,,,,
,,,,,,,,,,,
,,,,,,,,,,,
,,,,,,,,,,,
,,,,,,,,,,,
,,,,,,,,,,,
,,,,,,,,,,,
,,,,,,,,,,,
,,,,,,,,,,,
,,,,,,,,,,,
,,,,,,,,,,,
,,,,,,,,,,,
,,,,,,,,,,,
,,,,,,,,,,,
,,,,,,,,,,,
,,,,,,,,,,,
,,,,,,,,,,,
,,,,,,,,,,,
,,,,,,,,,,,
,,,,,,,,,,,
,,,,,,,,,,,
,,,,,,,,,,,
,,,,,,,,,,,
,,,,,,,,,,,
,,,,,,,,,,,
,,,,,,,,,,,
,,,,,,,,,,,
,,,,,,,,,,,
,,,,,,,,,,,
,,,,,,,,,,,
,,,,,,,,,,,
,,,,,,,,,,,
,,,,,,,,,,,
,,,,,,,,,,,
,,,,,,,,,,,
,,,,,,,,,,,
,,,,,,,,,,,
,,,,,,,,,,,
,,,,,,,,,,,
,,,,,,,,,,,
,,,,,,,,,,,
,,,,,,,,,,,
,,,,,,,,,,,
,,,,,,,,,,,
,,,,,,,,,,,
,,,,,,,,,,,
,,,,,,,,,,,
,,,,,,,,,,,
,,,,,,,,,,,
,,,,,,,,,,,
,,,,,,,,,,,
,,,,,,,,,,,
,,,,,,,,,,,
,,,,,,,,,,,
,,,,,,,,,,,
,,,,,,,,,,,
,,,,,,,,,,,
,,,,,,,,,,,
,,,,,,,,,,,
,,,,,,,,,,,
,,,,,,,,,,,
,,,,,,,,,,,
,,,,,,,,,,,
,,,,,,,,,,,
